{
  "count": 88,
  "next": "https://ll.thespacedevs.com/2.0.0/launcher/?limit=10&offset=10",
  "previous": null,
  "results": [
    {
      "id": 8,
      "url": "https://ll.thespacedevs.com/2.0.0/launcher/8/",
      "flight_proven": false,
      "serial_number": "B0003",
      "status": "expended",
      "details": "Core expended on flight, no recovery effort. First flight of Falcon 9",
      "launcher_config": {
        "id": 169,
        "launch_library_id": 90,
        "url": "https://ll.thespacedevs.com/2.0.0/config/launcher/169/",
        "name": "Falcon 9 v1.0",
        "family": "Falcon",
        "full_name": "Falcon 9 v1.0",
        "variant": "v1.0"
      },
      "image_url": "https://spacelaunchnow-prod-east.nyc3.digitaloceanspaces.com/media/launcher_core_images/8_image_20191115082425.jpg",
      "flights": 1,
      "last_launch_date": "2010-06-04T18:45:00Z",
      "first_launch_date": "2010-06-04T18:45:00Z"
    },
    {
      "id": 9,
      "url": "https://ll.thespacedevs.com/2.0.0/launcher/9/",
      "flight_proven": false,
      "serial_number": "B0004",
      "status": "expended",
      "details": "First flight of Dragon",
      "launcher_config": {
        "id": 169,
        "launch_library_id": 90,
        "url": "https://ll.thespacedevs.com/2.0.0/config/launcher/169/",
        "name": "Falcon 9 v1.0",
        "family": "Falcon",
        "full_name": "Falcon 9 v1.0",
        "variant": "v1.0"
      },
      "image_url": "https://spacelaunchnow-prod-east.nyc3.digitaloceanspaces.com/media/launcher_core_images/9_image_20191115082500.jpg",
      "flights": 1,
      "last_launch_date": "2010-12-08T15:43:00Z",
      "first_launch_date": "2010-12-08T15:43:00Z"
    },
    {
      "id": 10,
      "url": "https://ll.thespacedevs.com/2.0.0/launcher/10/",
      "flight_proven": false,
      "serial_number": "B0005",
      "status": "expended",
      "details": "Expended during Dragon demo flight C2+, no landing attempt.",
      "launcher_config": {
        "id": 169,
        "launch_library_id": 90,
        "url": "https://ll.thespacedevs.com/2.0.0/config/launcher/169/",
        "name": "Falcon 9 v1.0",
        "family": "Falcon",
        "full_name": "Falcon 9 v1.0",
        "variant": "v1.0"
      },
      "image_url": "https://spacelaunchnow-prod-east.nyc3.digitaloceanspaces.com/media/launcher_core_images/10_image_20191115082622.jpeg",
      "flights": 1,
      "last_launch_date": "2012-05-22T07:44:38Z",
      "first_launch_date": "2012-05-22T07:44:38Z"
    },
    {
      "id": 11,
      "url": "https://ll.thespacedevs.com/2.0.0/launcher/11/",
      "flight_proven": false,
      "serial_number": "B0006",
      "status": "expended",
      "details": "Suffered engine out at T+1:19 but primary mission successful",
      "launcher_config": {
        "id": 169,
        "launch_library_id": 90,
        "url": "https://ll.thespacedevs.com/2.0.0/config/launcher/169/",
        "name": "Falcon 9 v1.0",
        "family": "Falcon",
        "full_name": "Falcon 9 v1.0",
        "variant": "v1.0"
      },
      "image_url": "https://spacelaunchnow-prod-east.nyc3.digitaloceanspaces.com/media/launcher_core_images/11_image_20191115082657.jpeg",
      "flights": 1,
      "last_launch_date": "2012-10-08T00:35:07Z",
      "first_launch_date": "2012-10-08T00:35:07Z"
    },
    {
      "id": 12,
      "url": "https://ll.thespacedevs.com/2.0.0/launcher/12/",
      "flight_proven": false,
      "serial_number": "B0007",
      "status": "expended",
      "details": "Expended during CRS-2 launch, no landing attempt.",
      "launcher_config": {
        "id": 169,
        "launch_library_id": 90,
        "url": "https://ll.thespacedevs.com/2.0.0/config/launcher/169/",
        "name": "Falcon 9 v1.0",
        "family": "Falcon",
        "full_name": "Falcon 9 v1.0",
        "variant": "v1.0"
      },
      "image_url": "https://spacelaunchnow-prod-east.nyc3.digitaloceanspaces.com/media/launcher_core_images/12_image_20191115082745.jpeg",
      "flights": 1,
      "last_launch_date": "2013-03-01T15:10:13Z",
      "first_launch_date": "2013-03-01T15:10:13Z"
    },
    {
      "id": 13,
      "url": "https://ll.thespacedevs.com/2.0.0/launcher/13/",
      "flight_proven": false,
      "serial_number": "B1003",
      "status": "destroyed",
      "details": "First flight of Falcon 9 v1.1 upgrade, first Spacex flight from Vandenberg",
      "launcher_config": {
        "id": 14,
        "launch_library_id": 1,
        "url": "https://ll.thespacedevs.com/2.0.0/config/launcher/14/",
        "name": "Falcon 9 v1.1",
        "family": "Falcon",
        "full_name": "Falcon 9 v1.1",
        "variant": "v1.1"
      },
      "image_url": "https://spacelaunchnow-prod-east.nyc3.digitaloceanspaces.com/media/launcher_core_images/13_image_20191115082823.jpg",
      "flights": 1,
      "last_launch_date": "2013-09-29T16:00:00Z",
      "first_launch_date": "2013-09-29T16:00:00Z"
    },
    {
      "id": 14,
      "url": "https://ll.thespacedevs.com/2.0.0/launcher/14/",
      "flight_proven": false,
      "serial_number": "B1004",
      "status": "expended",
      "details": "Expended during SES-8 launch.",
      "launcher_config": {
        "id": 14,
        "launch_library_id": 1,
        "url": "https://ll.thespacedevs.com/2.0.0/config/launcher/14/",
        "name": "Falcon 9 v1.1",
        "family": "Falcon",
        "full_name": "Falcon 9 v1.1",
        "variant": "v1.1"
      },
      "image_url": "https://spacelaunchnow-prod-east.nyc3.digitaloceanspaces.com/media/launcher_core_images/14_image_20191115082913.jpeg",
      "flights": 1,
      "last_launch_date": "2013-12-03T21:41:00Z",
      "first_launch_date": "2013-12-03T21:41:00Z"
    },
    {
      "id": 15,
      "url": "https://ll.thespacedevs.com/2.0.0/launcher/15/",
      "flight_proven": false,
      "serial_number": "B1005",
      "status": "expended",
      "details": "Launched Thaicom 6.",
      "launcher_config": {
        "id": 14,
        "launch_library_id": 1,
        "url": "https://ll.thespacedevs.com/2.0.0/config/launcher/14/",
        "name": "Falcon 9 v1.1",
        "family": "Falcon",
        "full_name": "Falcon 9 v1.1",
        "variant": "v1.1"
      },
      "image_url": "https://spacelaunchnow-prod-east.nyc3.digitaloceanspaces.com/media/launcher_core_images/15_image_20190226091005.jpg",
      "flights": 1,
      "last_launch_date": "2014-01-06T22:06:00Z",
      "first_launch_date": "2014-01-06T22:06:00Z"
    },
    {
      "id": 16,
      "url": "https://ll.thespacedevs.com/2.0.0/launcher/16/",
      "flight_proven": false,
      "serial_number": "B1006",
      "status": "destroyed",
      "details": "Broke up after sucessful water landing",
      "launcher_config": {
        "id": 14,
        "launch_library_id": 1,
        "url": "https://ll.thespacedevs.com/2.0.0/config/launcher/14/",
        "name": "Falcon 9 v1.1",
        "family": "Falcon",
        "full_name": "Falcon 9 v1.1",
        "variant": "v1.1"
      },
      "image_url": "https://spacelaunchnow-prod-east.nyc3.digitaloceanspaces.com/media/launcher_core_images/16_image_20190226091044.jpeg",
      "flights": 1,
      "last_launch_date": "2014-04-18T19:25:22Z",
      "first_launch_date": "2014-04-18T19:25:22Z"
    },
    {
      "id": 17,
      "url": "https://ll.thespacedevs.com/2.0.0/launcher/17/",
      "flight_proven": false,
      "serial_number": "B1007",
      "status": "destroyed",
      "details": "Broke up after sucessful water landing",
      "launcher_config": {
        "id": 14,
        "launch_library_id": 1,
        "url": "https://ll.thespacedevs.com/2.0.0/config/launcher/14/",
        "name": "Falcon 9 v1.1",
        "family": "Falcon",
        "full_name": "Falcon 9 v1.1",
        "variant": "v1.1"
      },
      "image_url": "https://spacelaunchnow-prod-east.nyc3.digitaloceanspaces.com/media/launcher_core_images/17_image_20190226091117.jpg",
      "flights": 1,
      "last_launch_date": "2014-07-14T15:15:00Z",
      "first_launch_date": "2014-07-14T15:15:00Z"
    }
  ]
}